G04 #@! TF.FileFunction,Legend,Top*
%FSLAX46Y46*%
G04 Gerber Fmt 4.6, Leading zero omitted, Abs format (unit mm)*
G04 Created by KiCad (PCBNEW 4.0.6) date 06/13/18 15:52:06*
%MOMM*%
%LPD*%
G01*
G04 APERTURE LIST*
%ADD10C,0.150000*%
%ADD11C,0.120000*%
%ADD12C,0.125000*%
%ADD13C,1.850000*%
%ADD14R,0.800000X0.750000*%
%ADD15R,0.797560X0.797560*%
%ADD16R,1.016000X1.778000*%
%ADD17R,1.700000X0.800000*%
%ADD18R,3.100000X2.200000*%
G04 APERTURE END LIST*
D10*
X42678571Y-10607143D02*
X41178571Y-10607143D01*
X41178571Y-10250000D01*
X41250000Y-10035715D01*
X41392857Y-9892857D01*
X41535714Y-9821429D01*
X41821429Y-9750000D01*
X42035714Y-9750000D01*
X42321429Y-9821429D01*
X42464286Y-9892857D01*
X42607143Y-10035715D01*
X42678571Y-10250000D01*
X42678571Y-10607143D01*
X42678571Y-9107143D02*
X41678571Y-9107143D01*
X41178571Y-9107143D02*
X41250000Y-9178572D01*
X41321429Y-9107143D01*
X41250000Y-9035715D01*
X41178571Y-9107143D01*
X41321429Y-9107143D01*
X42678571Y-7750000D02*
X41892857Y-7750000D01*
X41750000Y-7821429D01*
X41678571Y-7964286D01*
X41678571Y-8250000D01*
X41750000Y-8392857D01*
X42607143Y-7750000D02*
X42678571Y-7892857D01*
X42678571Y-8250000D01*
X42607143Y-8392857D01*
X42464286Y-8464286D01*
X42321429Y-8464286D01*
X42178571Y-8392857D01*
X42107143Y-8250000D01*
X42107143Y-7892857D01*
X42035714Y-7750000D01*
X41678571Y-6392857D02*
X42892857Y-6392857D01*
X43035714Y-6464286D01*
X43107143Y-6535714D01*
X43178571Y-6678571D01*
X43178571Y-6892857D01*
X43107143Y-7035714D01*
X42607143Y-6392857D02*
X42678571Y-6535714D01*
X42678571Y-6821428D01*
X42607143Y-6964286D01*
X42535714Y-7035714D01*
X42392857Y-7107143D01*
X41964286Y-7107143D01*
X41821429Y-7035714D01*
X41750000Y-6964286D01*
X41678571Y-6821428D01*
X41678571Y-6535714D01*
X41750000Y-6392857D01*
X42678571Y-25214286D02*
X41178571Y-25214286D01*
X42250000Y-24714286D01*
X41178571Y-24214286D01*
X42678571Y-24214286D01*
X42678571Y-22857143D02*
X41892857Y-22857143D01*
X41750000Y-22928572D01*
X41678571Y-23071429D01*
X41678571Y-23357143D01*
X41750000Y-23500000D01*
X42607143Y-22857143D02*
X42678571Y-23000000D01*
X42678571Y-23357143D01*
X42607143Y-23500000D01*
X42464286Y-23571429D01*
X42321429Y-23571429D01*
X42178571Y-23500000D01*
X42107143Y-23357143D01*
X42107143Y-23000000D01*
X42035714Y-22857143D01*
X42678571Y-22142857D02*
X41678571Y-22142857D01*
X41178571Y-22142857D02*
X41250000Y-22214286D01*
X41321429Y-22142857D01*
X41250000Y-22071429D01*
X41178571Y-22142857D01*
X41321429Y-22142857D01*
X41678571Y-21428571D02*
X42678571Y-21428571D01*
X41821429Y-21428571D02*
X41750000Y-21357143D01*
X41678571Y-21214285D01*
X41678571Y-21000000D01*
X41750000Y-20857143D01*
X41892857Y-20785714D01*
X42678571Y-20785714D01*
D11*
X12150000Y-900000D02*
X12850000Y-900000D01*
X12850000Y-2100000D02*
X12150000Y-2100000D01*
X15850000Y-2100000D02*
X15150000Y-2100000D01*
X15150000Y-900000D02*
X15850000Y-900000D01*
D10*
X1550000Y-18850000D02*
X1550000Y-16950000D01*
X450000Y-18850000D02*
X450000Y-16950000D01*
X1000000Y-17950000D02*
X1000000Y-17500000D01*
X750000Y-18000000D02*
X1250000Y-18000000D01*
X1000000Y-18000000D02*
X750000Y-17750000D01*
X750000Y-17750000D02*
X1250000Y-17750000D01*
X1250000Y-17750000D02*
X1000000Y-18000000D01*
X1550000Y-13350000D02*
X1550000Y-11450000D01*
X450000Y-13350000D02*
X450000Y-11450000D01*
X1000000Y-12450000D02*
X1000000Y-12000000D01*
X750000Y-12500000D02*
X1250000Y-12500000D01*
X1000000Y-12500000D02*
X750000Y-12250000D01*
X750000Y-12250000D02*
X1250000Y-12250000D01*
X1250000Y-12250000D02*
X1000000Y-12500000D01*
X37494000Y-19240000D02*
G75*
G03X37494000Y-19240000I-254000J0D01*
G01*
X38317631Y-19240000D02*
G75*
G03X38317631Y-19240000I-1077631J0D01*
G01*
X38510000Y-20510000D02*
X38510000Y-17970000D01*
X35970000Y-20510000D02*
X38510000Y-20510000D01*
X35970000Y-17970000D02*
X35970000Y-20510000D01*
X38510000Y-17970000D02*
X35970000Y-17970000D01*
X31652000Y-26352000D02*
X31652000Y-6540000D01*
X2950000Y-26352000D02*
X31652000Y-26352000D01*
X2950000Y-6540000D02*
X2950000Y-26352000D01*
X31652000Y-6540000D02*
X2950000Y-6540000D01*
X39780000Y-30416000D02*
X39780000Y-2476000D01*
X1680000Y-30416000D02*
X39780000Y-30416000D01*
X1680000Y-2476000D02*
X1680000Y-30416000D01*
X39780000Y-2476000D02*
X1680000Y-2476000D01*
X12475000Y-2730000D02*
X31525000Y-2730000D01*
X12475000Y-5270000D02*
X12475000Y-2730000D01*
X31525000Y-5270000D02*
X12475000Y-5270000D01*
X31525000Y-2730000D02*
X31525000Y-5270000D01*
X31525000Y-27622000D02*
X31525000Y-30162000D01*
X12475000Y-27622000D02*
X31525000Y-27622000D01*
X31525000Y-30162000D02*
X12475000Y-30162000D01*
X12475000Y-30162000D02*
X12475000Y-27622000D01*
D11*
X45490140Y-4180900D02*
X45490140Y-3230900D01*
X45490140Y-3230900D02*
X45890140Y-3230900D01*
X45490140Y-11830900D02*
X45490140Y-12780900D01*
X45490140Y-12780900D02*
X45890140Y-12780900D01*
X49590140Y-3230900D02*
X49990140Y-3230900D01*
X49990140Y-3230900D02*
X49990140Y-8005900D01*
X49590140Y-12780900D02*
X49990140Y-12780900D01*
X49990140Y-12780900D02*
X49990140Y-8005900D01*
X45490140Y-11830900D02*
X43990140Y-11830900D01*
X45532640Y-19074520D02*
X45532640Y-18124520D01*
X45532640Y-18124520D02*
X45932640Y-18124520D01*
X45532640Y-26724520D02*
X45532640Y-27674520D01*
X45532640Y-27674520D02*
X45932640Y-27674520D01*
X49632640Y-18124520D02*
X50032640Y-18124520D01*
X50032640Y-18124520D02*
X50032640Y-22899520D01*
X49632640Y-27674520D02*
X50032640Y-27674520D01*
X50032640Y-27674520D02*
X50032640Y-22899520D01*
X45532640Y-26724520D02*
X44032640Y-26724520D01*
D12*
X10092572Y-1677171D02*
X10068762Y-1700981D01*
X9997334Y-1724790D01*
X9949715Y-1724790D01*
X9878286Y-1700981D01*
X9830667Y-1653362D01*
X9806858Y-1605743D01*
X9783048Y-1510505D01*
X9783048Y-1439076D01*
X9806858Y-1343838D01*
X9830667Y-1296219D01*
X9878286Y-1248600D01*
X9949715Y-1224790D01*
X9997334Y-1224790D01*
X10068762Y-1248600D01*
X10092572Y-1272410D01*
X10568762Y-1724790D02*
X10283048Y-1724790D01*
X10425905Y-1724790D02*
X10425905Y-1224790D01*
X10378286Y-1296219D01*
X10330667Y-1343838D01*
X10283048Y-1367648D01*
X11044952Y-1724790D02*
X10759238Y-1724790D01*
X10902095Y-1724790D02*
X10902095Y-1224790D01*
X10854476Y-1296219D01*
X10806857Y-1343838D01*
X10759238Y-1367648D01*
X17428572Y-1678571D02*
X17404762Y-1702381D01*
X17333334Y-1726190D01*
X17285715Y-1726190D01*
X17214286Y-1702381D01*
X17166667Y-1654762D01*
X17142858Y-1607143D01*
X17119048Y-1511905D01*
X17119048Y-1440476D01*
X17142858Y-1345238D01*
X17166667Y-1297619D01*
X17214286Y-1250000D01*
X17285715Y-1226190D01*
X17333334Y-1226190D01*
X17404762Y-1250000D01*
X17428572Y-1273810D01*
X17904762Y-1726190D02*
X17619048Y-1726190D01*
X17761905Y-1726190D02*
X17761905Y-1226190D01*
X17714286Y-1297619D01*
X17666667Y-1345238D01*
X17619048Y-1369048D01*
X18095238Y-1273810D02*
X18119048Y-1250000D01*
X18166667Y-1226190D01*
X18285714Y-1226190D01*
X18333333Y-1250000D01*
X18357143Y-1273810D01*
X18380952Y-1321429D01*
X18380952Y-1369048D01*
X18357143Y-1440476D01*
X18071429Y-1726190D01*
X18380952Y-1726190D01*
X1226190Y-20119747D02*
X726190Y-20119747D01*
X726190Y-20000700D01*
X750000Y-19929271D01*
X797619Y-19881652D01*
X845238Y-19857843D01*
X940476Y-19834033D01*
X1011905Y-19834033D01*
X1107143Y-19857843D01*
X1154762Y-19881652D01*
X1202381Y-19929271D01*
X1226190Y-20000700D01*
X1226190Y-20119747D01*
X1226190Y-19357843D02*
X1226190Y-19643557D01*
X1226190Y-19500700D02*
X726190Y-19500700D01*
X797619Y-19548319D01*
X845238Y-19595938D01*
X869048Y-19643557D01*
X1226190Y-14369047D02*
X726190Y-14369047D01*
X726190Y-14250000D01*
X750000Y-14178571D01*
X797619Y-14130952D01*
X845238Y-14107143D01*
X940476Y-14083333D01*
X1011905Y-14083333D01*
X1107143Y-14107143D01*
X1154762Y-14130952D01*
X1202381Y-14178571D01*
X1226190Y-14250000D01*
X1226190Y-14369047D01*
X773810Y-13892857D02*
X750000Y-13869047D01*
X726190Y-13821428D01*
X726190Y-13702381D01*
X750000Y-13654762D01*
X773810Y-13630952D01*
X821429Y-13607143D01*
X869048Y-13607143D01*
X940476Y-13630952D01*
X1226190Y-13916666D01*
X1226190Y-13607143D01*
D10*
X37033324Y-448571D02*
X37033324Y-1662857D01*
X37095229Y-1805714D01*
X37157133Y-1877143D01*
X37280943Y-1948571D01*
X37528562Y-1948571D01*
X37652371Y-1877143D01*
X37714276Y-1805714D01*
X37776181Y-1662857D01*
X37776181Y-448571D01*
X39076181Y-1948571D02*
X38333324Y-1948571D01*
X38704753Y-1948571D02*
X38704753Y-448571D01*
X38580943Y-662857D01*
X38457134Y-805714D01*
X38333324Y-877143D01*
X32120381Y-29701524D02*
X32120381Y-29082476D01*
X32501333Y-29415810D01*
X32501333Y-29272952D01*
X32548952Y-29177714D01*
X32596571Y-29130095D01*
X32691810Y-29082476D01*
X32929905Y-29082476D01*
X33025143Y-29130095D01*
X33072762Y-29177714D01*
X33120381Y-29272952D01*
X33120381Y-29558667D01*
X33072762Y-29653905D01*
X33025143Y-29701524D01*
X32120381Y-28463429D02*
X32120381Y-28368190D01*
X32168000Y-28272952D01*
X32215619Y-28225333D01*
X32310857Y-28177714D01*
X32501333Y-28130095D01*
X32739429Y-28130095D01*
X32929905Y-28177714D01*
X33025143Y-28225333D01*
X33072762Y-28272952D01*
X33120381Y-28368190D01*
X33120381Y-28463429D01*
X33072762Y-28558667D01*
X33025143Y-28606286D01*
X32929905Y-28653905D01*
X32739429Y-28701524D01*
X32501333Y-28701524D01*
X32310857Y-28653905D01*
X32215619Y-28606286D01*
X32168000Y-28558667D01*
X32120381Y-28463429D01*
X11530381Y-29082476D02*
X11530381Y-29653905D01*
X11530381Y-29368191D02*
X10530381Y-29368191D01*
X10673238Y-29463429D01*
X10768476Y-29558667D01*
X10816095Y-29653905D01*
X10530381Y-28225333D02*
X10530381Y-28415810D01*
X10578000Y-28511048D01*
X10625619Y-28558667D01*
X10768476Y-28653905D01*
X10958952Y-28701524D01*
X11339905Y-28701524D01*
X11435143Y-28653905D01*
X11482762Y-28606286D01*
X11530381Y-28511048D01*
X11530381Y-28320571D01*
X11482762Y-28225333D01*
X11435143Y-28177714D01*
X11339905Y-28130095D01*
X11101810Y-28130095D01*
X11006571Y-28177714D01*
X10958952Y-28225333D01*
X10911333Y-28320571D01*
X10911333Y-28511048D01*
X10958952Y-28606286D01*
X11006571Y-28653905D01*
X11101810Y-28701524D01*
X11784381Y-4190476D02*
X11784381Y-4761905D01*
X11784381Y-4476191D02*
X10784381Y-4476191D01*
X10927238Y-4571429D01*
X11022476Y-4666667D01*
X11070095Y-4761905D01*
X10784381Y-3285714D02*
X10784381Y-3761905D01*
X11260571Y-3809524D01*
X11212952Y-3761905D01*
X11165333Y-3666667D01*
X11165333Y-3428571D01*
X11212952Y-3333333D01*
X11260571Y-3285714D01*
X11355810Y-3238095D01*
X11593905Y-3238095D01*
X11689143Y-3285714D01*
X11736762Y-3333333D01*
X11784381Y-3428571D01*
X11784381Y-3666667D01*
X11736762Y-3761905D01*
X11689143Y-3809524D01*
X33120381Y-3714285D02*
X33120381Y-4285714D01*
X33120381Y-4000000D02*
X32120381Y-4000000D01*
X32263238Y-4095238D01*
X32358476Y-4190476D01*
X32406095Y-4285714D01*
X44416667Y-13202381D02*
X44416667Y-13916667D01*
X44369047Y-14059524D01*
X44273809Y-14154762D01*
X44130952Y-14202381D01*
X44035714Y-14202381D01*
X44845238Y-13297619D02*
X44892857Y-13250000D01*
X44988095Y-13202381D01*
X45226191Y-13202381D01*
X45321429Y-13250000D01*
X45369048Y-13297619D01*
X45416667Y-13392857D01*
X45416667Y-13488095D01*
X45369048Y-13630952D01*
X44797619Y-14202381D01*
X45416667Y-14202381D01*
X44416667Y-16952381D02*
X44416667Y-17666667D01*
X44369047Y-17809524D01*
X44273809Y-17904762D01*
X44130952Y-17952381D01*
X44035714Y-17952381D01*
X44797619Y-16952381D02*
X45416667Y-16952381D01*
X45083333Y-17333333D01*
X45226191Y-17333333D01*
X45321429Y-17380952D01*
X45369048Y-17428571D01*
X45416667Y-17523810D01*
X45416667Y-17761905D01*
X45369048Y-17857143D01*
X45321429Y-17904762D01*
X45226191Y-17952381D01*
X44940476Y-17952381D01*
X44845238Y-17904762D01*
X44797619Y-17857143D01*
%LPC*%
D13*
X43000000Y-2000000D03*
D14*
X11750000Y-1500000D03*
X13250000Y-1500000D03*
X16250000Y-1500000D03*
X14750000Y-1500000D03*
D15*
X1000000Y-17000700D03*
X1000000Y-18499300D03*
X1000000Y-11500700D03*
X1000000Y-12999300D03*
D16*
X30890000Y-4000000D03*
X29620000Y-4000000D03*
X28350000Y-4000000D03*
X27080000Y-4000000D03*
X25810000Y-4000000D03*
X24540000Y-4000000D03*
X23270000Y-4000000D03*
X22000000Y-4000000D03*
X20730000Y-4000000D03*
X19460000Y-4000000D03*
X18190000Y-4000000D03*
X16920000Y-4000000D03*
X15650000Y-4000000D03*
X14380000Y-4000000D03*
X13110000Y-4000000D03*
X13110000Y-28892000D03*
X14380000Y-28892000D03*
X15650000Y-28892000D03*
X16920000Y-28892000D03*
X18190000Y-28892000D03*
X19460000Y-28892000D03*
X20730000Y-28892000D03*
X22000000Y-28892000D03*
X23270000Y-28892000D03*
X24540000Y-28892000D03*
X25810000Y-28892000D03*
X27080000Y-28892000D03*
X28350000Y-28892000D03*
X29620000Y-28892000D03*
X30890000Y-28892000D03*
D17*
X44840140Y-11130900D03*
X44840140Y-9880900D03*
X44840140Y-8630900D03*
X44840140Y-7380900D03*
X44840140Y-6130900D03*
X44840140Y-4880900D03*
D18*
X47740140Y-13630900D03*
X47740140Y-2380900D03*
D17*
X44882640Y-26024520D03*
X44882640Y-24774520D03*
X44882640Y-23524520D03*
X44882640Y-22274520D03*
X44882640Y-21024520D03*
X44882640Y-19774520D03*
D18*
X47782640Y-28524520D03*
X47782640Y-17274520D03*
D13*
X43000000Y-30000000D03*
M02*
